<define-tag pagetitle>DLA-3085-1 curl</define-tag>
<define-tag report_date>2022-8-29</define-tag>
<define-tag secrefs>CVE-2021-22898 CVE-2021-22924 CVE-2021-22946 CVE-2021-22947 CVE-2022-22576 CVE-2022-27776 CVE-2022-27781 CVE-2022-27782 CVE-2022-32206 CVE-2022-32208 Bug#989228 Bug#991492 Bug#1010295 Bug#1010254 Bug#1010253 Bug#1010252</define-tag>
<define-tag packages>curl</define-tag>
<define-tag isvulnerable>yes</define-tag>
<define-tag fixed>yes</define-tag>
<define-tag fixed-section>no</define-tag>

#use wml::debian::security

