<define-tag pagetitle>DLA-3177-1 python-django</define-tag>
<define-tag report_date>2022-11-04</define-tag>
<define-tag secrefs>CVE-2022-28346 CVE-2021-45115 CVE-2021-45116</define-tag>
<define-tag packages>python-django</define-tag>
<define-tag isvulnerable>yes</define-tag>
<define-tag fixed>yes</define-tag>
<define-tag fixed-section>no</define-tag>

#use wml::debian::security
