<define-tag pagetitle>DLA-3122-1 dovecot</define-tag>
<define-tag report_date>2022-09-27</define-tag>
<define-tag secrefs>CVE-2021-33515 CVE-2022-30550</define-tag>
<define-tag packages>dovecot</define-tag>
<define-tag isvulnerable>yes</define-tag>
<define-tag fixed>yes</define-tag>
<define-tag fixed-section>no</define-tag>

#use wml::debian::security

