<define-tag pagetitle>DLA-3098-1 libmodbus</define-tag>
<define-tag report_date>2022-9-04</define-tag>
<define-tag secrefs>CVE-2022-0367</define-tag>
<define-tag packages>libmodbus</define-tag>
<define-tag isvulnerable>yes</define-tag>
<define-tag fixed>yes</define-tag>
<define-tag fixed-section>no</define-tag>

#use wml::debian::security

