<define-tag pagetitle>DLA-3209-1 ini4j</define-tag>
<define-tag report_date>2022-11-28</define-tag>
<define-tag secrefs>CVE-2022-41404</define-tag>
<define-tag packages>ini4j</define-tag>
<define-tag isvulnerable>yes</define-tag>
<define-tag fixed>yes</define-tag>
<define-tag fixed-section>no</define-tag>

#use wml::debian::security

