<define-tag pagetitle>DLA-3149-1 ruby-nokogiri</define-tag>
<define-tag report_date>2022-10-12</define-tag>
<define-tag secrefs>CVE-2019-5477 CVE-2020-26247 CVE-2022-24836 Bug#934802 Bug#978967 Bug#1009787</define-tag>
<define-tag packages>ruby-nokogiri</define-tag>
<define-tag isvulnerable>yes</define-tag>
<define-tag fixed>yes</define-tag>
<define-tag fixed-section>no</define-tag>

#use wml::debian::security

