<define-tag pagetitle>DLA-3076-1 freecad</define-tag>
<define-tag report_date>2022-08-18</define-tag>
<define-tag secrefs>CVE-2021-45844 Bug#1005747</define-tag>
<define-tag packages>freecad</define-tag>
<define-tag isvulnerable>yes</define-tag>
<define-tag fixed>yes</define-tag>
<define-tag fixed-section>no</define-tag>

#use wml::debian::security

