<define-tag pagetitle>DLA-2901-1 libxfont</define-tag>
<define-tag report_date>2022-1-25</define-tag>
<define-tag secrefs>CVE-2017-16611</define-tag>
<define-tag packages>libxfont</define-tag>
<define-tag isvulnerable>yes</define-tag>
<define-tag fixed>yes</define-tag>
<define-tag fixed-section>no</define-tag>

#use wml::debian::security

