<define-tag pagetitle>DLA-2961-1 thunderbird</define-tag>
<define-tag report_date>2022-03-22</define-tag>
<define-tag secrefs>CVE-2022-26381 CVE-2022-26383 CVE-2022-26384 CVE-2022-26386 CVE-2022-26387</define-tag>
<define-tag packages>thunderbird</define-tag>
<define-tag isvulnerable>yes</define-tag>
<define-tag fixed>yes</define-tag>
<define-tag fixed-section>no</define-tag>

#use wml::debian::security

