<define-tag pagetitle>DLA-3153-1 libksba</define-tag>
<define-tag report_date>2022-10-17</define-tag>
<define-tag secrefs>CVE-2022-3515 Bug#1021928</define-tag>
<define-tag packages>libksba</define-tag>
<define-tag isvulnerable>yes</define-tag>
<define-tag fixed>yes</define-tag>
<define-tag fixed-section>no</define-tag>

#use wml::debian::security

