    <p>
      Debian produseres av nesten ett tusen aktive utviklere spredt 
      <a href="$(DEVEL)/developers.loc">rundt omkring i verden</a>, 
      som bidrar i fritiden sin. Få av utviklerne har faktisk
      møtt hverandre personlig. Samtalene skjer for det meste gjennom
      e-post (listene fins hos lists.debian.org) og IRC (kanalen #debian 
      hos irc.debian.org).</p>

    <p>
      Debian-prosjektet har en nøye <a href="organization">organisert
      struktur</a>. For mer informasjon om hvordan Debian ser ut fra innsiden,
      se deg rundt på <a href="$(DEVEL)/">utviklerhjørnet</a>.</p>
