  <p>
    Debian startet i august 1993 av Ian Murdock, som en ny
    distribusjon med en åpen utviklingsmodell, i samsvar med Linux og
    GNU.  Hensikten med Debian var å bygge et nøyaktig og møysommelig
    verk, og deretter å vedlikeholde og støtte det med lignende omsorg.
    Det startet som en liten, tettbygd gruppe av «frie» programmerere, og
    vokste gradvis til en stor, velorganisert forening av utviklere og
    brukere.  Se <a href="$(DOC)/manuals/project-history/">den
      detaljerte historien</a>.</p>

  <p>
    Siden mange har spurt; Debian uttales «deb-ii-n».  Dette kommer
    fra navnene på opprinneren, Ian Murdock [uttales «ii-n»], og konen
    hans, Debra.</p>
