<define-tag pagetitle>DSA-4974-1 nextcloud-desktop</define-tag>
<define-tag report_date>2021-9-19</define-tag>
<define-tag secrefs>CVE-2021-22895 CVE-2021-32728 Bug#989846</define-tag>
<define-tag packages>nextcloud-desktop</define-tag>
<define-tag isvulnerable>yes</define-tag>
<define-tag fixed>yes</define-tag>
<define-tag fixed-section>no</define-tag>

#use wml::debian::security



</dl>
