<define-tag pagetitle>DSA-4610-1 webkit2gtk</define-tag>
<define-tag report_date>2020-1-29</define-tag>
<define-tag secrefs>CVE-2019-8835 CVE-2019-8844 CVE-2019-8846</define-tag>
<define-tag packages>webkit2gtk</define-tag>
<define-tag isvulnerable>yes</define-tag>
<define-tag fixed>yes</define-tag>
<define-tag fixed-section>no</define-tag>

#use wml::debian::security



</dl>
