<define-tag pagetitle>DSA-4636-1 python-bleach</define-tag>
<define-tag report_date>2020-2-28</define-tag>
<define-tag secrefs>CVE-2020-6802 Bug#951907</define-tag>
<define-tag packages>python-bleach</define-tag>
<define-tag isvulnerable>yes</define-tag>
<define-tag fixed>yes</define-tag>
<define-tag fixed-section>no</define-tag>

#use wml::debian::security



</dl>
