<define-tag pagetitle>DLA-2655-1 rails</define-tag>
<define-tag report_date>2021-05-12</define-tag>
<define-tag secrefs>CVE-2021-22885 CVE-2021-22904 Bug#988214</define-tag>
<define-tag packages>rails</define-tag>
<define-tag isvulnerable>yes</define-tag>
<define-tag fixed>yes</define-tag>
<define-tag fixed-section>no</define-tag>

#use wml::debian::security

