<define-tag pagetitle>DLA-2870-1 apache-log4j2</define-tag>
<define-tag report_date>2021-12-29</define-tag>
<define-tag secrefs>CVE-2021-44832 Bug#1002813</define-tag>
<define-tag packages>apache-log4j2</define-tag>
<define-tag isvulnerable>yes</define-tag>
<define-tag fixed>yes</define-tag>
<define-tag fixed-section>no</define-tag>

#use wml::debian::security

