<define-tag pagetitle>DLA-2845-1 libsamplerate</define-tag>
<define-tag report_date>2021-12-14</define-tag>
<define-tag secrefs>CVE-2017-7697</define-tag>
<define-tag packages>libsamplerate</define-tag>
<define-tag isvulnerable>yes</define-tag>
<define-tag fixed>yes</define-tag>
<define-tag fixed-section>no</define-tag>

#use wml::debian::security

