<define-tag pagetitle>DLA-2719-1 ruby-actionpack-page-caching</define-tag>
<define-tag report_date>2021-07-23</define-tag>
<define-tag secrefs>CVE-2020-8159 Bug#960680</define-tag>
<define-tag packages>ruby-actionpack-page-caching</define-tag>
<define-tag isvulnerable>yes</define-tag>
<define-tag fixed>yes</define-tag>
<define-tag fixed-section>no</define-tag>

#use wml::debian::security

