<define-tag pagetitle>DSA-5341-1 wpewebkit</define-tag>
<define-tag report_date>2023-2-06</define-tag>
<define-tag secrefs>CVE-2022-42826 CVE-2023-23517 CVE-2023-23518</define-tag>
<define-tag packages>wpewebkit</define-tag>
<define-tag isvulnerable>yes</define-tag>
<define-tag fixed>yes</define-tag>
<define-tag fixed-section>no</define-tag>

#use wml::debian::security



</dl>
