<define-tag pagetitle>DLA-1005-1 mercurial</define-tag>
<define-tag report_date>2017-6-29</define-tag>
<define-tag secrefs>CVE-2017-9462 Bug#861243</define-tag>
<define-tag packages>mercurial</define-tag>
<define-tag isvulnerable>yes</define-tag>
<define-tag fixed>yes</define-tag>
<define-tag fixed-section>no</define-tag>

#use wml::debian::security

