<define-tag pagetitle>DLA-1067-1 augeas</define-tag>
<define-tag report_date>2017-8-26</define-tag>
<define-tag secrefs>CVE-2017-7555 Bug#872400</define-tag>
<define-tag packages>augeas</define-tag>
<define-tag isvulnerable>yes</define-tag>
<define-tag fixed>yes</define-tag>
<define-tag fixed-section>no</define-tag>

#use wml::debian::security

