<define-tag pagetitle>DLA-1061-1 newsbeuter</define-tag>
<define-tag report_date>2017-8-19</define-tag>
<define-tag secrefs>CVE-2017-12904</define-tag>
<define-tag packages>newsbeuter</define-tag>
<define-tag isvulnerable>yes</define-tag>
<define-tag fixed>yes</define-tag>
<define-tag fixed-section>no</define-tag>

#use wml::debian::security

