<define-tag pagetitle>DLA-1202-1 firefox-esr</define-tag>
<define-tag report_date>2017-12-10</define-tag>
<define-tag secrefs>CVE-2017-7843</define-tag>
<define-tag packages>firefox-esr</define-tag>
<define-tag isvulnerable>yes</define-tag>
<define-tag fixed>yes</define-tag>
<define-tag fixed-section>no</define-tag>

#use wml::debian::security

