<define-tag pagetitle>DLA-1095-1 freerdp</define-tag>
<define-tag report_date>2017-9-11</define-tag>
<define-tag secrefs>CVE-2017-2835 CVE-2017-2836 CVE-2017-2837 CVE-2017-2838 CVE-2017-2839 Bug#869880</define-tag>
<define-tag packages>freerdp</define-tag>
<define-tag isvulnerable>yes</define-tag>
<define-tag fixed>yes</define-tag>
<define-tag fixed-section>no</define-tag>

#use wml::debian::security

