<define-tag pagetitle>DLA-3315-1 sox</define-tag>
<define-tag report_date>2023-02-10</define-tag>
<define-tag secrefs>CVE-2019-13590 CVE-2021-3643 CVE-2021-23159 CVE-2021-23172 CVE-2021-23210 CVE-2021-33844 CVE-2021-40426 CVE-2022-31650 CVE-2022-31651 Bug#933372 Bug#1010374 Bug#1012138 Bug#1012516 Bug#1021133 Bug#1021134 Bug#1021135</define-tag>
<define-tag packages>sox</define-tag>
<define-tag isvulnerable>yes</define-tag>
<define-tag fixed>yes</define-tag>
<define-tag fixed-section>no</define-tag>

#use wml::debian::security

