<define-tag pagetitle>DLA-2444-1 tcpdump</define-tag>
<define-tag report_date>2020-11-10</define-tag>
<define-tag secrefs>CVE-2020-8037 Bug#973877</define-tag>
<define-tag packages>tcpdump</define-tag>
<define-tag isvulnerable>yes</define-tag>
<define-tag fixed>yes</define-tag>
<define-tag fixed-section>no</define-tag>

#use wml::debian::security

