<define-tag pagetitle>DLA-2305-1 transmission</define-tag>
<define-tag report_date>2020-08-01</define-tag>
<define-tag secrefs>CVE-2018-10756 Bug#961461</define-tag>
<define-tag packages>transmission</define-tag>
<define-tag isvulnerable>yes</define-tag>
<define-tag fixed>yes</define-tag>
<define-tag fixed-section>no</define-tag>

#use wml::debian::security

