<define-tag pagetitle>DLA-2194-1 yodl</define-tag>
<define-tag report_date>2020-4-30</define-tag>
<define-tag secrefs>CVE-2016-10375</define-tag>
<define-tag packages>yodl</define-tag>
<define-tag isvulnerable>yes</define-tag>
<define-tag fixed>yes</define-tag>
<define-tag fixed-section>no</define-tag>

#use wml::debian::security

