<define-tag pagetitle>DLA-2245-1 mysql-connector-java</define-tag>
<define-tag report_date>2020-06-11</define-tag>
<define-tag secrefs>CVE-2020-2875 CVE-2020-2933 CVE-2020-2934</define-tag>
<define-tag packages>mysql-connector-java</define-tag>
<define-tag isvulnerable>yes</define-tag>
<define-tag fixed>yes</define-tag>
<define-tag fixed-section>no</define-tag>

#use wml::debian::security

