<define-tag pagetitle>DLA-2184-1 jsch</define-tag>
<define-tag report_date>2020-4-25</define-tag>
<define-tag secrefs>CVE-2016-5725</define-tag>
<define-tag packages>jsch</define-tag>
<define-tag isvulnerable>yes</define-tag>
<define-tag fixed>yes</define-tag>
<define-tag fixed-section>no</define-tag>

#use wml::debian::security

