<define-tag pagetitle>DLA-1495-1 git-annex</define-tag>
<define-tag report_date>2018-9-5</define-tag>
<define-tag secrefs>CVE-2017-12976 CVE-2018-10857 CVE-2018-10859 Bug#873088</define-tag>
<define-tag packages>git-annex</define-tag>
<define-tag isvulnerable>yes</define-tag>
<define-tag fixed>yes</define-tag>
<define-tag fixed-section>no</define-tag>

#use wml::debian::security

