<define-tag pagetitle>DLA-1274-1 exim4</define-tag>
<define-tag report_date>2018-2-10</define-tag>
<define-tag secrefs>CVE-2018-6789 Bug#890000</define-tag>
<define-tag packages>exim4</define-tag>
<define-tag isvulnerable>yes</define-tag>
<define-tag fixed>yes</define-tag>
<define-tag fixed-section>no</define-tag>

#use wml::debian::security

