<define-tag pagetitle>DLA-1514-1 texlive-bin</define-tag>
<define-tag report_date>2018-9-22</define-tag>
<define-tag secrefs>not yet available</define-tag>
<define-tag packages>texlive-bin</define-tag>
<define-tag isvulnerable>yes</define-tag>
<define-tag fixed>yes</define-tag>
<define-tag fixed-section>no</define-tag>

#use wml::debian::security

