<define-tag pagetitle>DSA-4409-1 neutron</define-tag>
<define-tag report_date>2019-3-18</define-tag>
<define-tag secrefs>CVE-2019-9735</define-tag>
<define-tag packages>neutron</define-tag>
<define-tag isvulnerable>yes</define-tag>
<define-tag fixed>yes</define-tag>
<define-tag fixed-section>no</define-tag>

#use wml::debian::security



</dl>
