<define-tag pagetitle>DSA-4509-1 apache2</define-tag>
<define-tag report_date>2019-8-26</define-tag>
<define-tag secrefs>CVE-2019-9517 CVE-2019-10081 CVE-2019-10082 CVE-2019-10092 CVE-2019-10097 CVE-2019-10098</define-tag>
<define-tag packages>apache2</define-tag>
<define-tag isvulnerable>yes</define-tag>
<define-tag fixed>yes</define-tag>
<define-tag fixed-section>no</define-tag>

#use wml::debian::security



</dl>
