<define-tag pagetitle>DSA-5310-1 ruby-image-processing</define-tag>
<define-tag report_date>2022-12-31</define-tag>
<define-tag secrefs>CVE-2022-24720 Bug#1007225</define-tag>
<define-tag packages>ruby-image-processing</define-tag>
<define-tag isvulnerable>yes</define-tag>
<define-tag fixed>yes</define-tag>
<define-tag fixed-section>no</define-tag>

#use wml::debian::security



</dl>
