<define-tag pagetitle>DSA-5283-1 jackson-databind</define-tag>
<define-tag report_date>2022-11-17</define-tag>
<define-tag secrefs>CVE-2020-36518 CVE-2022-42003 CVE-2022-42004 Bug#1007109</define-tag>
<define-tag packages>jackson-databind</define-tag>
<define-tag isvulnerable>yes</define-tag>
<define-tag fixed>yes</define-tag>
<define-tag fixed-section>no</define-tag>

#use wml::debian::security



</dl>
