<define-tag pagetitle>DSA-5172-1 firefox-esr</define-tag>
<define-tag report_date>2022-6-29</define-tag>
<define-tag secrefs>CVE-2022-2200 CVE-2022-31744 CVE-2022-34468 CVE-2022-34470 CVE-2022-34472 CVE-2022-34479 CVE-2022-34481 CVE-2022-34484</define-tag>
<define-tag packages>firefox-esr</define-tag>
<define-tag isvulnerable>yes</define-tag>
<define-tag fixed>yes</define-tag>
<define-tag fixed-section>no</define-tag>

#use wml::debian::security



</dl>
