<define-tag pagetitle>DSA-5063-1 uriparser</define-tag>
<define-tag report_date>2022-1-26</define-tag>
<define-tag secrefs>CVE-2021-46141 CVE-2021-46142</define-tag>
<define-tag packages>uriparser</define-tag>
<define-tag isvulnerable>yes</define-tag>
<define-tag fixed>yes</define-tag>
<define-tag fixed-section>no</define-tag>

#use wml::debian::security



</dl>
