<define-tag pagetitle>DSA-5272-1 xen</define-tag>
<define-tag report_date>2022-11-06</define-tag>
<define-tag secrefs>CVE-2022-33745 CVE-2022-33746 CVE-2022-33747 CVE-2022-33748 CVE-2022-42309 CVE-2022-42310 CVE-2022-42311 CVE-2022-42312 CVE-2022-42313 CVE-2022-42314 CVE-2022-42315 CVE-2022-42316 CVE-2022-42317 CVE-2022-42318 CVE-2022-42319 CVE-2022-42320 CVE-2022-42321 CVE-2022-42322 CVE-2022-42323 CVE-2022-42324 CVE-2022-42325 CVE-2022-42326</define-tag>
<define-tag packages>xen</define-tag>
<define-tag isvulnerable>yes</define-tag>
<define-tag fixed>yes</define-tag>
<define-tag fixed-section>no</define-tag>

#use wml::debian::security



</dl>
