<define-tag pagetitle>DLA-1962-1 graphite-web</define-tag>
<define-tag report_date>2019-10-21</define-tag>
<define-tag secrefs>CVE-2017-18638</define-tag>
<define-tag packages>graphite-web</define-tag>
<define-tag isvulnerable>yes</define-tag>
<define-tag fixed>yes</define-tag>
<define-tag fixed-section>no</define-tag>

#use wml::debian::security

