<define-tag pagetitle>DLA-1934-1 cimg</define-tag>
<define-tag report_date>2019-9-28</define-tag>
<define-tag secrefs>CVE-2018-7588 CVE-2018-7589 CVE-2018-7637 CVE-2018-7638 CVE-2018-7639 CVE-2018-7640 CVE-2018-7641 CVE-2019-1010174</define-tag>
<define-tag packages>cimg</define-tag>
<define-tag isvulnerable>yes</define-tag>
<define-tag fixed>yes</define-tag>
<define-tag fixed-section>no</define-tag>

#use wml::debian::security

