<define-tag pagetitle>DLA-1973-1 libxslt</define-tag>
<define-tag report_date>2019-10-27</define-tag>
<define-tag secrefs>CVE-2019-18197 Bug#942646</define-tag>
<define-tag packages>libxslt</define-tag>
<define-tag isvulnerable>yes</define-tag>
<define-tag fixed>yes</define-tag>
<define-tag fixed-section>no</define-tag>

#use wml::debian::security

