<define-tag pagetitle>DLA-2040-1 harfbuzz</define-tag>
<define-tag report_date>2019-12-17</define-tag>
<define-tag secrefs>CVE-2015-8947</define-tag>
<define-tag packages>harfbuzz</define-tag>
<define-tag isvulnerable>yes</define-tag>
<define-tag fixed>yes</define-tag>
<define-tag fixed-section>no</define-tag>

#use wml::debian::security

