<define-tag pagetitle>DLA-670-1 linux</define-tag>
<define-tag report_date>2016-10-20</define-tag>
<define-tag secrefs>CVE-2015-8956 CVE-2016-5195 CVE-2016-7042 CVE-2016-7425</define-tag>
<define-tag packages>linux</define-tag>
<define-tag isvulnerable>yes</define-tag>
<define-tag fixed>yes</define-tag>
<define-tag fixed-section>no</define-tag>

#use wml::debian::security

