<define-tag pagetitle>DLA-665-1 libgd2</define-tag>
<define-tag report_date>2016-10-18</define-tag>
<define-tag secrefs>CVE-2016-6911 CVE-2016-8670</define-tag>
<define-tag packages>libgd2</define-tag>
<define-tag isvulnerable>yes</define-tag>
<define-tag fixed>yes</define-tag>
<define-tag fixed-section>no</define-tag>

#use wml::debian::security

